{"https://api.flickr.com/services/rest/format-json_method-flickr.photos.search_per_page-50_tag_mode-all_tags-sunset": {"photos": {"page": 1, "pages": 7786, "perpage": 50, "total": "389291", "photo": [{"id": "48335559101", "owner": "33050285@N03", "secret": "69cb8b825c", "server": "65535", "farm": 66, "title": "Velvet", "ispublic": 1, "isfriend": 0, "isfamily": 0}, {"id": "48335445977", "owner": "126929414@N07", "secret": "616f087f5a", "server": "65535", "farm": 66, "title": "Kamloops Evening", "ispublic": 1, "isfriend": 0, "isfamily": 0}, {"id": "48335715172", "owner": "36963585@N07", "secret": "15233537fb", "server": "65535", "farm": 66, "title": "Sunset in Herastrau Park", "ispublic": 1, "isfriend": 0, "isfamily": 0}, {"id": "48335561796", "owner": "7195376@N03", "secret": "4d1756563a", "server": "65535", "farm": 66, "title": "_MG_1355-Bearbeitet_LR", "ispublic": 1, "isfriend": 0, "isfamily": 0}, {"id": "48335549576", "owner": "89198807@N02", "secret": "6d6a2311af", "server": "65535", "farm": 66, "title": "Tief steht die Sonne \u00fcberm Tal, das Schattenspiel bet\u00f6rt den Blick, ein Flimmern noch am Horizont  verr\u00e4t den letzten Sonnenstrahl und l\u00e4sst uns stumm zur\u00fcck.", "ispublic": 1, "isfriend": 0, "isfamily": 0}, {"id": "48335692657", "owner": "23355426@N00", "secret": "fb3414f145", "server": "65535", "farm": 66, "title": "Settling Sun - 1", "ispublic": 1, "isfriend": 0, "isfamily": 0}, {"id": "48335540136", "owner": "134204021@N07", "secret": "2ca21ff8d5", "server": "65535", "farm": 66, "title": "Summer at the pond II", "ispublic": 1, "isfriend": 0, "isfamily": 0}, {"id": "48335513236", "owner": "164310828@N08", "secret": "9df5191c61", "server": "65535", "farm": 66, "title": "Atardece En El Olivar", "ispublic": 1, "isfriend": 0, "isfamily": 0}, {"id": "48335659112", "owner": "164310828@N08", "secret": "044e1e62b3", "server": "65535", "farm": 66, "title": "Imagination", "ispublic": 1, "isfriend": 0, "isfamily": 0}, {"id": "48335638837", "owner": "67260580@N02", "secret": "eaffdaa5ab", "server": "65535", "farm": 66, "title": "Ungarn - 2019-34", "ispublic": 1, "isfriend": 0, "isfamily": 0}, {"id": "48335482906", "owner": "67260580@N02", "secret": "5ec4b248ec", "server": "65535", "farm": 66, "title": "Ungarn - 2019-33", "ispublic": 1, "isfriend": 0, "isfamily": 0}, {"id": "48335666227", "owner": "27726982@N04", "secret": "6038636d8d", "server": "65535", "farm": 66, "title": "Laila en Ciudad Universitaria.", "ispublic": 1, "isfriend": 0, "isfamily": 0}, {"id": "48335562482", "owner": "130393193@N06", "secret": "0e61341477", "server": "65535", "farm": 66, "title": "Twilight Glow", "ispublic": 1, "isfriend": 0, "isfamily": 0}, {"id": "48335560102", "owner": "130393193@N06", "secret": "e28ff8b9da", "server": "65535", "farm": 66, "title": "Sunset over Kata Tjuta", "ispublic": 1, "isfriend": 0, "isfamily": 0}, {"id": "48335412661", "owner": "130393193@N06", "secret": "656404fc16", "server": "65535", "farm": 66, "title": "Twilight Glow", "ispublic": 1, "isfriend": 0, "isfamily": 0}, {"id": "48335412481", "owner": "130393193@N06", "secret": "0567841edd", "server": "65535", "farm": 66, "title": "Last Light", "ispublic": 1, "isfriend": 0, "isfamily": 0}, {"id": "373176797", "owner": "79986881@N00", "secret": "ba8765d9da", "server": "65535", "farm": 66, "title": "Nepal - Kathmandu - Swayumbunath Sunset", "ispublic": 1, "isfriend": 0, "isfamily": 0}, {"id": "48335449481", "owner": "130687111@N03", "secret": "26fd6fe894", "server": "65535", "farm": 66, "title": "Broarna 20190713", "ispublic": 1, "isfriend": 0, "isfamily": 0}, {"id": "48335576092", "owner": "151561481@N04", "secret": "e06a4fb7d9", "server": "65535", "farm": 66, "title": "spaced out__", "ispublic": 1, "isfriend": 0, "isfamily": 0}, {"id": "48335580832", "owner": "135705373@N07", "secret": "58b2604d6a", "server": "65535", "farm": 66, "title": "Sunset 11", "ispublic": 1, "isfriend": 0, "isfamily": 0}, {"id": "48335430761", "owner": "46848480@N00", "secret": "6c0010c2fc", "server": "65535", "farm": 66, "title": "20190427-1DX22244", "ispublic": 1, "isfriend": 0, "isfamily": 0}, {"id": "48335430506", "owner": "46848480@N00", "secret": "d3941fa254", "server": "65535", "farm": 66, "title": "20190427-1DX22250", "ispublic": 1, "isfriend": 0, "isfamily": 0}, {"id": "48335577527", "owner": "46848480@N00", "secret": "5d8803bb52", "server": "65535", "farm": 66, "title": "20190427-1DX22255", "ispublic": 1, "isfriend": 0, "isfamily": 0}, {"id": "48335430171", "owner": "46848480@N00", "secret": "2f94a72a63", "server": "65535", "farm": 66, "title": "20190427-1DX22258", "ispublic": 1, "isfriend": 0, "isfamily": 0}, {"id": "48335577012", "owner": "46848480@N00", "secret": "fdf1a36cd0", "server": "65535", "farm": 66, "title": "20190427-1DX22263", "ispublic": 1, "isfriend": 0, "isfamily": 0}, {"id": "48335576687", "owner": "46848480@N00", "secret": "0097108c70", "server": "65535", "farm": 66, "title": "20190427-1DX22265", "ispublic": 1, "isfriend": 0, "isfamily": 0}, {"id": "48335429261", "owner": "46848480@N00", "secret": "2ec44e2cc3", "server": "65535", "farm": 66, "title": "20190427-1DX22266", "ispublic": 1, "isfriend": 0, "isfamily": 0}, {"id": "48335576227", "owner": "46848480@N00", "secret": "aee25ee29f", "server": "65535", "farm": 66, "title": "20190427-1DX22270", "ispublic": 1, "isfriend": 0, "isfamily": 0}, {"id": "48335428871", "owner": "46848480@N00", "secret": "f2bbbdc03b", "server": "65535", "farm": 66, "title": "20190427-1DX22276", "ispublic": 1, "isfriend": 0, "isfamily": 0}, {"id": "48335575877", "owner": "46848480@N00", "secret": "85799eebf6", "server": "65535", "farm": 66, "title": "20190427-1DX22278", "ispublic": 1, "isfriend": 0, "isfamily": 0}, {"id": "48335575727", "owner": "46848480@N00", "secret": "9b76426695", "server": "65535", "farm": 66, "title": "20190427-1DX22292", "ispublic": 1, "isfriend": 0, "isfamily": 0}, {"id": "48335428481", "owner": "46848480@N00", "secret": "6f9e4172d7", "server": "65535", "farm": 66, "title": "20190427-1DX22294", "ispublic": 1, "isfriend": 0, "isfamily": 0}, {"id": "48335428191", "owner": "46848480@N00", "secret": "e28dee5ac0", "server": "65535", "farm": 66, "title": "20190427-1DX22296", "ispublic": 1, "isfriend": 0, "isfamily": 0}, {"id": "48335408636", "owner": "156850753@N05", "secret": "5be74ddf11", "server": "65535", "farm": 66, "title": "\u0413\u043e\u0440\u044c\u043a\u043e\u0432\u0441\u043a\u043e\u0435 \u043c\u043e\u0440\u0435. Gorky Sea.", "ispublic": 1, "isfriend": 0, "isfamily": 0}, {"id": "48335398261", "owner": "30163880@N08", "secret": "95e0c48777", "server": "65535", "farm": 66, "title": "Hicksville, NY", "ispublic": 1, "isfriend": 0, "isfamily": 0}, {"id": "48332525542", "owner": "16230743@N06", "secret": "27fde290fb", "server": "0", "farm": 0, "title": "Me session water shooting<::::::::::::::::", "ispublic": 1, "isfriend": 0, "isfamily": 0}, {"id": "48314685301", "owner": "110158313@N05", "secret": "1890ab76c6", "server": "65535", "farm": 66, "title": "Beruwala 05", "ispublic": 1, "isfriend": 0, "isfamily": 0}, {"id": "48314791377", "owner": "110158313@N05", "secret": "ffa434980e", "server": "65535", "farm": 66, "title": "Beruwala 04", "ispublic": 1, "isfriend": 0, "isfamily": 0}, {"id": "48335266026", "owner": "154363000@N02", "secret": "909b36565b", "server": "65535", "farm": 66, "title": "4 / 3s", "ispublic": 1, "isfriend": 0, "isfamily": 0}, {"id": "48335402877", "owner": "65964496@N08", "secret": "5dbd162506", "server": "65535", "farm": 66, "title": "from the porch", "ispublic": 1, "isfriend": 0, "isfamily": 0}, {"id": "48335368267", "owner": "137578060@N03", "secret": "076b21c346", "server": "65535", "farm": 66, "title": "The Journey of the Light", "ispublic": 1, "isfriend": 0, "isfamily": 0}, {"id": "48335343682", "owner": "156693200@N04", "secret": "7c21072218", "server": "65535", "farm": 66, "title": "sunset in the fields", "ispublic": 1, "isfriend": 0, "isfamily": 0}, {"id": "48335209296", "owner": "162831070@N02", "secret": "5016c0f92e", "server": "65535", "farm": 66, "title": "Sunset in Provence", "ispublic": 1, "isfriend": 0, "isfamily": 0}, {"id": "48335351737", "owner": "19336613@N03", "secret": "8a4b5ea20c", "server": "65535", "farm": 66, "title": "DSCN4101_a", "ispublic": 1, "isfriend": 0, "isfamily": 0}, {"id": "48335351672", "owner": "19336613@N03", "secret": "d7e19b1540", "server": "65535", "farm": 66, "title": "DSCN4102_a", "ispublic": 1, "isfriend": 0, "isfamily": 0}, {"id": "48335351507", "owner": "19336613@N03", "secret": "77ded5f181", "server": "65535", "farm": 66, "title": "DSCN4103_a", "ispublic": 1, "isfriend": 0, "isfamily": 0}, {"id": "48335351332", "owner": "19336613@N03", "secret": "7e459433ff", "server": "65535", "farm": 66, "title": "DSCN4104_a", "ispublic": 1, "isfriend": 0, "isfamily": 0}, {"id": "48335204426", "owner": "19336613@N03", "secret": "236a3120b8", "server": "65535", "farm": 66, "title": "DSCN4136_a", "ispublic": 1, "isfriend": 0, "isfamily": 0}, {"id": "48335204316", "owner": "19336613@N03", "secret": "a252ca913b", "server": "65535", "farm": 66, "title": "DSCN4137_a", "ispublic": 1, "isfriend": 0, "isfamily": 0}, {"id": "48335561311", "owner": "7195376@N03", "secret": "16baa72455", "server": "65535", "farm": 66, "title": "_MG_1564-Bearbeitet_LR", "ispublic": 1, "isfriend": 0, "isfamily": 0}]}, "stat": "ok"}, "https://api.flickr.com/services/rest/format-json_method-flickr.photos.search_per_page-50_tag_mode-all_tags-alps": {"photos": {"page": 1, "pages": 12376, "perpage": 50, "total": "618788", "photo": [{"id": "48335700662", "owner": "55975101@N06", "secret": "de3370178a", "server": "65535", "farm": 66, "title": "Tricky", "ispublic": 1, "isfriend": 0, "isfamily": 0}, {"id": "48335519381", "owner": "43056966@N07", "secret": "34cfaa081e", "server": "65535", "farm": 66, "title": "Road To Paradise.... Or Food [Moggio Udinese - 14 July 2019]", "ispublic": 1, "isfriend": 0, "isfamily": 0}, {"id": "48335666327", "owner": "43056966@N07", "secret": "40d89e1eef", "server": "65535", "farm": 66, "title": "Meadows & Views [Moggio Udinese - 14 July 2019]", "ispublic": 1, "isfriend": 0, "isfamily": 0}, {"id": "48335518661", "owner": "43056966@N07", "secret": "e826053564", "server": "65535", "farm": 66, "title": "Meadows & Views [Moggio Udinese - 14 July 2019]", "ispublic": 1, "isfriend": 0, "isfamily": 0}, {"id": "48335665877", "owner": "43056966@N07", "secret": "79364140e2", "server": "65535", "farm": 66, "title": "Wild Flowers [Moggio Udinese - 14 July 2019]", "ispublic": 1, "isfriend": 0, "isfamily": 0}, {"id": "48335678837", "owner": "55975101@N06", "secret": "b390f6129b", "server": "65535", "farm": 66, "title": "Maybe a bath later?", "ispublic": 1, "isfriend": 0, "isfamily": 0}, {"id": "48335293287", "owner": "149409629@N08", "secret": "8f1ecc17aa", "server": "65535", "farm": 66, "title": "dormire da dio", "ispublic": 1, "isfriend": 0, "isfamily": 0}, {"id": "48335401716", "owner": "94296371@N00", "secret": "494cf60324", "server": "65535", "farm": 66, "title": "godz martuljek", "ispublic": 1, "isfriend": 0, "isfamily": 0}, {"id": "48335343217", "owner": "54436738@N04", "secret": "cc019ee360", "server": "65535", "farm": 66, "title": "Tramonto sul Vernel", "ispublic": 1, "isfriend": 0, "isfamily": 0}, {"id": "48334928352", "owner": "19685823@N00", "secret": "74047b8116", "server": "65535", "farm": 66, "title": "Obersee - Erstfeldertal, Uri", "ispublic": 1, "isfriend": 0, "isfamily": 0}, {"id": "48334623511", "owner": "75452460@N00", "secret": "b46e09f107", "server": "65535", "farm": 66, "title": "Am Gleinkersee / At Lake Gleinker", "ispublic": 1, "isfriend": 0, "isfamily": 0}, {"id": "48334617901", "owner": "75452460@N00", "secret": "d338b70931", "server": "65535", "farm": 66, "title": "Am Gleinkersee / At Lake Gleinker", "ispublic": 1, "isfriend": 0, "isfamily": 0}, {"id": "48333264461", "owner": "96626683@N03", "secret": "b37af4e5ba", "server": "65535", "farm": 66, "title": "Oisans", "ispublic": 1, "isfriend": 0, "isfamily": 0}, {"id": "48332949661", "owner": "134205948@N02", "secret": "2352ba5827", "server": "65535", "farm": 66, "title": "In vetta (agosto 1999)", "ispublic": 1, "isfriend": 0, "isfamily": 0}, {"id": "48332868282", "owner": "91300281@N05", "secret": "954166f5ec", "server": "65535", "farm": 66, "title": "sky and mountains reflection", "ispublic": 1, "isfriend": 0, "isfamily": 0}, {"id": "48332658411", "owner": "155929328@N06", "secret": "1b0e022722", "server": "65535", "farm": 66, "title": "Sunrise at the Eibsee", "ispublic": 1, "isfriend": 0, "isfamily": 0}, {"id": "48332216666", "owner": "61003318@N04", "secret": "e00c6780d2", "server": "65535", "farm": 66, "title": "Learning to fly", "ispublic": 1, "isfriend": 0, "isfamily": 0}, {"id": "48332196401", "owner": "147455298@N05", "secret": "69e68fece9", "server": "65535", "farm": 66, "title": "Alps", "ispublic": 1, "isfriend": 0, "isfamily": 0}, {"id": "48332067752", "owner": "147455298@N05", "secret": "e53593d181", "server": "65535", "farm": 66, "title": "Hallstatt", "ispublic": 1, "isfriend": 0, "isfamily": 0}, {"id": "48331933046", "owner": "147455298@N05", "secret": "796524ee21", "server": "65535", "farm": 66, "title": "Paraglider over the mountains of the Hohe Tauern", "ispublic": 1, "isfriend": 0, "isfamily": 0}, {"id": "48332066142", "owner": "147455298@N05", "secret": "468793f63a", "server": "65535", "farm": 66, "title": "Alpine Cross", "ispublic": 1, "isfriend": 0, "isfamily": 0}, {"id": "48331929891", "owner": "147455298@N05", "secret": "961b4926b9", "server": "65535", "farm": 66, "title": "Stormy Serenity", "ispublic": 1, "isfriend": 0, "isfamily": 0}, {"id": "48331928761", "owner": "147455298@N05", "secret": "dd03a3f0bd", "server": "65535", "farm": 66, "title": "mystic mountain - one", "ispublic": 1, "isfriend": 0, "isfamily": 0}, {"id": "48332061337", "owner": "147455298@N05", "secret": "8dd453b6ae", "server": "65535", "farm": 66, "title": "Misty Climb", "ispublic": 1, "isfriend": 0, "isfamily": 0}, {"id": "48331926831", "owner": "147455298@N05", "secret": "d5b2413eac", "server": "65535", "farm": 66, "title": "Giant Swing", "ispublic": 1, "isfriend": 0, "isfamily": 0}, {"id": "48331919211", "owner": "147455298@N05", "secret": "2d8567c83d", "server": "65535", "farm": 66, "title": "Alps valley", "ispublic": 1, "isfriend": 0, "isfamily": 0}, {"id": "48331918106", "owner": "147455298@N05", "secret": "ac683647a6", "server": "65535", "farm": 66, "title": "glacier hike", "ispublic": 1, "isfriend": 0, "isfamily": 0}, {"id": "48331917816", "owner": "147455298@N05", "secret": "81de40a2b3", "server": "65535", "farm": 66, "title": "Grassy ridge", "ispublic": 1, "isfriend": 0, "isfamily": 0}, {"id": "48331878101", "owner": "68387408@N00", "secret": "5aaa95c258", "server": "65535", "farm": 66, "title": "should I stay or should I go?", "ispublic": 1, "isfriend": 0, "isfamily": 0}, {"id": "48332003712", "owner": "12533858@N04", "secret": "0a73603bf1", "server": "65535", "farm": 66, "title": "Vorderkaser im Pfossental", "ispublic": 1, "isfriend": 0, "isfamily": 0}, {"id": "48331806901", "owner": "168493965@N05", "secret": "a15b8e61ec", "server": "65535", "farm": 66, "title": "DSC02689", "ispublic": 1, "isfriend": 0, "isfamily": 0}, {"id": "48331788216", "owner": "168493965@N05", "secret": "5a2589747d", "server": "65535", "farm": 66, "title": "DSC02752", "ispublic": 1, "isfriend": 0, "isfamily": 0}, {"id": "48331912362", "owner": "168493965@N05", "secret": "e9f1fafeb7", "server": "65535", "farm": 66, "title": "DSC02718", "ispublic": 1, "isfriend": 0, "isfamily": 0}, {"id": "48331897107", "owner": "168493965@N05", "secret": "f29278cc47", "server": "65535", "farm": 66, "title": "DSC02679", "ispublic": 1, "isfriend": 0, "isfamily": 0}, {"id": "48331888057", "owner": "168493965@N05", "secret": "ed710d6176", "server": "65535", "farm": 66, "title": "DSC02564", "ispublic": 1, "isfriend": 0, "isfamily": 0}, {"id": "48331735076", "owner": "19661778@N00", "secret": "62f0ef187c", "server": "65535", "farm": 66, "title": "", "ispublic": 1, "isfriend": 0, "isfamily": 0}, {"id": "48331764502", "owner": "22392439@N04", "secret": "176a1ca9a0", "server": "65535", "farm": 66, "title": "A Path To The Mountains", "ispublic": 1, "isfriend": 0, "isfamily": 0}, {"id": "48331058431", "owner": "19685823@N00", "secret": "4c8a0f79e2", "server": "65535", "farm": 66, "title": "kleine Br\u00fccke mit Wasserfall im Hintergrund - auf dem H\u00fcttenweg zur Kr\u00f6ntenh\u00fctte SAC", "ispublic": 1, "isfriend": 0, "isfamily": 0}, {"id": "48331609866", "owner": "124229355@N03", "secret": "118af0f156", "server": "65535", "farm": 66, "title": "Blick auf Kufstein", "ispublic": 1, "isfriend": 0, "isfamily": 0}, {"id": "48331636622", "owner": "43445333@N06", "secret": "3fd0732d96", "server": "65535", "farm": 66, "title": "Zell am See + Sch\u00fcttdorf", "ispublic": 1, "isfriend": 0, "isfamily": 0}, {"id": "48331569407", "owner": "94296371@N00", "secret": "9c91fdb237", "server": "65535", "farm": 66, "title": "forest paths", "ispublic": 1, "isfriend": 0, "isfamily": 0}, {"id": "48331559547", "owner": "124229355@N03", "secret": "fd73606252", "server": "65535", "farm": 66, "title": "Zahmer Kaiser", "ispublic": 1, "isfriend": 0, "isfamily": 0}, {"id": "48331227317", "owner": "22251936@N00", "secret": "4d3b1078b0", "server": "65535", "farm": 66, "title": "The ice melt below.", "ispublic": 1, "isfriend": 0, "isfamily": 0}, {"id": "48331089641", "owner": "22251936@N00", "secret": "03a2c0a8c1", "server": "65535", "farm": 66, "title": "Slate roofs.", "ispublic": 1, "isfriend": 0, "isfamily": 0}, {"id": "48331221662", "owner": "22251936@N00", "secret": "9f91c16549", "server": "65535", "farm": 66, "title": "Outside.", "ispublic": 1, "isfriend": 0, "isfamily": 0}, {"id": "48331085346", "owner": "22251936@N00", "secret": "c5ea863616", "server": "65535", "farm": 66, "title": "Wire link fence.", "ispublic": 1, "isfriend": 0, "isfamily": 0}, {"id": "48331218917", "owner": "22251936@N00", "secret": "917a3b09b7", "server": "65535", "farm": 66, "title": "Cloudy wispy.", "ispublic": 1, "isfriend": 0, "isfamily": 0}, {"id": "48331218472", "owner": "22251936@N00", "secret": "1e7d25eae0", "server": "65535", "farm": 66, "title": "The Matterhorn again!", "ispublic": 1, "isfriend": 0, "isfamily": 0}, {"id": "48331083916", "owner": "22251936@N00", "secret": "35eb7a4956", "server": "65535", "farm": 66, "title": "Steve got a hat.", "ispublic": 1, "isfriend": 0, "isfamily": 0}, {"id": "48331083426", "owner": "22251936@N00", "secret": "cae5df7d17", "server": "65535", "farm": 66, "title": "Heading back down.", "ispublic": 1, "isfriend": 0, "isfamily": 0}]}, "stat": "ok"}}